 F
       13607       29224           1        1024
   -0.448169278739057262E+02   -0.365456461331194404E+02
 T
   0
 T F     0        1024
    0.461079910190684871E-05   -0.448169278739057262E+02   -0.365456461331194404E+02
